apple_fb_watch
…
Residual Deviance: 14955.98 
AIC: 15105.98 

predict

multinom_pred <- augment(multinom_fit, test)

New names:
• `...1` -> `...8`

multinom_pred

# A tibble: 1,569 × 26
   .pred_class    .pred_Lying .pred_Sitting `.pred_Self Pace walk`
   <fct>                <dbl>         <dbl>                  <dbl>
 1 Lying                0.261         0.179                 0.114 
 2 Lying                0.248         0.176                 0.117 
 3 Lying                0.248         0.175                 0.117 
 4 Lying                0.246         0.175                 0.117 
 5 Lying                0.242         0.174                 0.117 
 6 Running 3 METs       0.149         0.169                 0.217 
 7 Running 3 METs       0.175         0.170                 0.173 
 8 Running 3 METs       0.187         0.173                 0.155 
 9 Lying                0.318         0.196                 0.0916
10 Lying                0.354         0.207                 0.0911
# ℹ 1,559 more rows
# ℹ 22 more variables: `.pred_Running 3 METs` <dbl>,
#   `.pred_Running 5 METs` <dbl>, `.pred_Running 7 METs` <dbl>, ...8 <dbl>,
#   age <dbl>, gender <fct>, height <dbl>, weight <dbl>, steps <dbl>,
#   hear_rate <dbl>, calories <dbl>, distance <dbl>, entropy_heart <dbl>,
#   entropy_setps <dbl>, resting_heart <dbl>, corr_heart_steps <dbl>,
#   norm_heart <dbl>, intensity_karvonen <dbl>, sd_norm_heart <dbl>, …
…
show_best(tuning,metric = 'accuracy')

# A tibble: 5 × 7
  neighbors .metric  .estimator  mean     n std_err .config              
      <int> <chr>    <chr>      <dbl> <int>   <dbl> <chr>                
1         1 accuracy multiclass 0.737     5 0.00874 Preprocessor1_Model01
2         2 accuracy multiclass 0.737     5 0.00874 Preprocessor1_Model02
3         3 accuracy multiclass 0.737     5 0.00874 Preprocessor1_Model03
4         4 accuracy multiclass 0.737     5 0.00874 Preprocessor1_Model04
5         5 accuracy multiclass 0.727     5 0.00954 Preprocessor1_Model05

collect_metrics(tuning)

# A tibble: 45 × 7
   neighbors .metric     .estimator  mean     n std_err .config              
       <int> <chr>       <chr>      <dbl> <int>   <dbl> <chr>                
 1         1 accuracy    multiclass 0.737     5 0.00874 Preprocessor1_Model01
 2         1 brier_class multiclass 0.263     5 0.00874 Preprocessor1_Model01
 3         1 roc_auc     hand_till  0.843     5 0.00509 Preprocessor1_Model01
 4         2 accuracy    multiclass 0.737     5 0.00874 Preprocessor1_Model02
 5         2 brier_class multiclass 0.233     5 0.00698 Preprocessor1_Model02
 6         2 roc_auc     hand_till  0.882     5 0.00412 Preprocessor1_Model02
 7         3 accuracy    multiclass 0.737     5 0.00874 Preprocessor1_Model03
 8         3 brier_class multiclass 0.217     5 0.00599 Preprocessor1_Model03
 9         3 roc_auc     hand_till  0.896     5 0.00315 Preprocessor1_Model03
10         4 accuracy    multiclass 0.737     5 0.00874 Preprocessor1_Model04
# ℹ 35 more rows
…
show_best(rand_tuning, metric='accuracy')

# A tibble: 5 × 8
   mtry min_n .metric  .estimator  mean     n std_err .config              
  <int> <int> <chr>    <chr>      <dbl> <int>   <dbl> <chr>                
1    12     6 accuracy multiclass 0.829     5 0.00438 Preprocessor1_Model03
2    16     5 accuracy multiclass 0.821     5 0.00541 Preprocessor1_Model06
3    11    12 accuracy multiclass 0.820     5 0.00463 Preprocessor1_Model05
4    14    15 accuracy multiclass 0.804     5 0.00419 Preprocessor1_Model02
5     8    20 accuracy multiclass 0.802     5 0.00546 Preprocessor1_Model01

collect_metrics(rand_tuning)

# A tibble: 30 × 8
    mtry min_n .metric     .estimator  mean     n std_err .config              
   <int> <int> <chr>       <chr>      <dbl> <int>   <dbl> <chr>                
 1     8    20 accuracy    multiclass 0.802     5 0.00546 Preprocessor1_Model01
 2     8    20 brier_class multiclass 0.165     5 0.00257 Preprocessor1_Model01
 3     8    20 roc_auc     hand_till  0.967     5 0.00157 Preprocessor1_Model01
 4    14    15 accuracy    multiclass 0.804     5 0.00419 Preprocessor1_Model02
 5    14    15 brier_class multiclass 0.156     5 0.00274 Preprocessor1_Model02
 6    14    15 roc_auc     hand_till  0.967     5 0.00162 Preprocessor1_Model02
 7    12     6 accuracy    multiclass 0.829     5 0.00438 Preprocessor1_Model03
 8    12     6 brier_class multiclass 0.136     5 0.00286 Preprocessor1_Model03
 9    12     6 roc_auc     hand_till  0.974     5 0.00159 Preprocessor1_Model03
10     2    39 accuracy    multiclass 0.750     5 0.00768 Preprocessor1_Model04
# ℹ 20 more rows
…
